module bitbucket.cib.echonet/src/tekton/operator

go 1.17

require (
	github.com/tektoncd/pipeline v0.31.0
	k8s.io/apimachinery v0.21.4
	k8s.io/client-go v0.21.4
)

require (
	contrib.go.opencensus.io/exporter/ocagent v0.7.1-0.20200907061046-05415f1de66d // indirect
	contrib.go.opencensus.io/exporter/prometheus v0.4.0 // indirect
	github.com/PuerkitoBio/purell v1.1.1 // indirect
	github.com/PuerkitoBio/urlesc v0.0.0-20170810143723-de5bf2ad4578 // indirect
	github.com/beorn7/perks v1.0.1 // indirect
	github.com/blendle/zapdriver v1.3.1 // indirect
	github.com/census-instrumentation/opencensus-proto v0.3.0 // indirect
	github.com/cespare/xxhash/v2 v2.1.1 // indirect
	github.com/davecgh/go-spew v1.1.1 // indirect
	github.com/emicklei/go-restful v2.15.0+incompatible // indirect
	github.com/evanphx/json-patch/v5 v5.5.0 // indirect
	github.com/ghodss/yaml v1.0.0 // indirect
	github.com/go-kit/log v0.1.0 // indirect
	github.com/go-logfmt/logfmt v0.5.0 // indirect
	github.com/go-logr/logr v0.4.0 // indirect
	github.com/go-openapi/jsonpointer v0.19.5 // indirect
	github.com/go-openapi/jsonreference v0.19.5 // indirect
	github.com/go-openapi/spec v0.20.2 // indirect
	github.com/go-openapi/swag v0.19.15 // indirect
	github.com/gogo/protobuf v1.3.2 // indirect
	github.com/golang/groupcache v0.0.0-20210331224755-41bb18bfe9da // indirect
	github.com/golang/protobuf v1.5.2 // indirect
	github.com/google/go-cmp v0.5.6 // indirect
	github.com/google/go-containerregistry v0.6.0 // indirect
	github.com/google/gofuzz v1.2.0 // indirect
	github.com/googleapis/gnostic v0.5.3 // indirect
	github.com/grpc-ecosystem/grpc-gateway v1.16.0 // indirect
	github.com/hashicorp/errwrap v1.0.0 // indirect
	github.com/hashicorp/go-multierror v1.1.1 // indirect
	github.com/hashicorp/golang-lru v0.5.4 // indirect
	github.com/imdario/mergo v0.3.11 // indirect
	github.com/josharian/intern v1.0.0 // indirect
	github.com/json-iterator/go v1.1.11 // indirect
	github.com/mailru/easyjson v0.7.7 // indirect
	github.com/matttproud/golang_protobuf_extensions v1.0.2-0.20181231171920-c182affec369 // indirect
	github.com/modern-go/concurrent v0.0.0-20180306012644-bacd9c7ef1dd // indirect
	github.com/modern-go/reflect2 v1.0.1 // indirect
	github.com/pkg/errors v0.9.1 // indirect
	github.com/prometheus/client_golang v1.11.0 // indirect
	github.com/prometheus/client_model v0.2.0 // indirect
	github.com/prometheus/common v0.31.1 // indirect
	github.com/prometheus/procfs v0.6.0 // indirect
	github.com/prometheus/statsd_exporter v0.21.0 // indirect
	github.com/spf13/pflag v1.0.5 // indirect
	go.opencensus.io v0.23.0 // indirect
	go.uber.org/atomic v1.9.0 // indirect
	go.uber.org/multierr v1.7.0 // indirect
	go.uber.org/zap v1.19.1 // indirect
	golang.org/x/net v0.0.0-20211015210444-4f30a5c0130f // indirect
	golang.org/x/oauth2 v0.0.0-20211005180243-6b3c2da341f1 // indirect
	golang.org/x/sync v0.0.0-20210220032951-036812b2e83c // indirect
	golang.org/x/sys v0.0.0-20210917161153-d61c044b1678 // indirect
	golang.org/x/term v0.0.0-20210220032956-6a3ed077a48d // indirect
	golang.org/x/text v0.3.6 // indirect
	golang.org/x/time v0.0.0-20210220033141-f8bda1e9f3ba // indirect
	gomodules.xyz/jsonpatch/v2 v2.2.0 // indirect
	google.golang.org/api v0.58.0 // indirect
	google.golang.org/appengine v1.6.7 // indirect
	google.golang.org/genproto v0.0.0-20211016002631-37fc39342514 // indirect
	google.golang.org/grpc v1.41.0 // indirect
	google.golang.org/protobuf v1.27.1 // indirect
	gopkg.in/inf.v0 v0.9.1 // indirect
	gopkg.in/yaml.v2 v2.4.0 // indirect
	gopkg.in/yaml.v3 v3.0.0-20210107192922-496545a6307b // indirect
	k8s.io/api v0.21.4 // indirect
	k8s.io/klog/v2 v2.8.0 // indirect
	k8s.io/kube-openapi v0.0.0-20210305001622-591a79e4bda7 // indirect
	k8s.io/utils v0.0.0-20210111153108-fddb29f9d009 // indirect
	knative.dev/pkg v0.0.0-20211101212339-96c0204a70dc // indirect
	sigs.k8s.io/structured-merge-diff/v4 v4.1.2 // indirect
	sigs.k8s.io/yaml v1.3.0 // indirect
)
